<?xml version="1.0" encoding="UTF-8"?>
<svg height="128px" viewBox="0 0 128 128" width="128px" xmlns="http://www.w3.org/2000/svg" xmlns:xlink="http://www.w3.org/1999/xlink">
    <linearGradient id="a" gradientTransform="matrix(1 0 0 0.95454 0 -158.907494)" gradientUnits="userSpaceOnUse" x1="-0" x2="127.999977" y1="288" y2="288">
        <stop offset="0" stop-color="#983600"/>
        <stop offset="0.0625" stop-color="#f26219"/>
        <stop offset="0.312119" stop-color="#c64600"/>
        <stop offset="0.688295" stop-color="#c64600"/>
        <stop offset="0.937501" stop-color="#f26219"/>
        <stop offset="1" stop-color="#983600"/>
    </linearGradient>
    <linearGradient id="b" gradientUnits="userSpaceOnUse" x1="54" x2="122" y1="70" y2="70">
        <stop offset="0" stop-color="#c3c2bc"/>
        <stop offset="0.639093" stop-color="#ececec"/>
        <stop offset="1" stop-color="#c7c6c2"/>
    </linearGradient>
    <path d="m 40 32 h 48 c 22.089844 0 40 17.910156 40 40 v 4 c 0 22.089844 -17.910156 40 -40 40 h -48 c -22.089844 0 -40 -17.910156 -40 -40 v -4 c 0 -22.089844 17.910156 -40 40 -40 z m 0 0" fill="url(#a)"/>
    <path d="m 40 32 h 48 c 22.089844 0 40 17.910156 40 40 c 0 22.09375 -17.910156 40 -40 40 h -48 c -22.089844 0 -40 -17.90625 -40 -40 c 0 -22.089844 17.910156 -40 40 -40 z m 0 0" fill="#ff7800"/>
    <path d="m 88 34 c 18.777344 0 34 15.222656 34 34 v 4 c 0 18.777344 -15.222656 34 -34 34 s -34 -15.222656 -34 -34 v -4 c 0 -18.777344 15.222656 -34 34 -34 z m 0 0" fill="url(#b)"/>
    <path d="m 122 68 c 0 18.777344 -15.222656 34 -34 34 s -34 -15.222656 -34 -34 s 15.222656 -34 34 -34 s 34 15.222656 34 34 z m 0 0" fill="#ffffff"/>
</svg>
